code_withHazard/rv32i.vcd
$date
	Wed Mar 27 00:06:50 2024
$end
$version
	Icarus Verilog
$end
$timescale
	1ps
$end
$scope module top_tb $end
$var reg 1 ! clk $end
$var reg 1 " dump $end
$var reg 1 # rst $end
$scope module dut $end
$var wire 1 ! clk $end
$var wire 1 " dump $end
$var wire 1 # rst $end
$var wire 3 $ strCtrlM [2:0] $end
$var wire 3 % strCtrlE [2:0] $end
$var wire 32 & resultW [31:0] $end
$var wire 5 ' rdW [4:0] $end
$var wire 5 ( rdM [4:0] $end
$var wire 5 ) rdE [4:0] $end
$var wire 32 * r2M [31:0] $end
$var wire 32 + r2E [31:0] $end
$var wire 32 , r1E [31:0] $end
$var wire 32 - instrD [31:0] $end
$var wire 32 . immE [31:0] $end
$var wire 2 / SrcBSelE [1:0] $end
$var wire 2 0 SrcASelE [1:0] $end
$var wire 1 1 RegWriteW $end
$var wire 1 2 RegWriteM $end
$var wire 1 3 RegWriteE $end
$var wire 32 4 ReadDataW [31:0] $end
$var wire 1 5 PCsrcE $end
$var wire 32 6 PCplusImmE [31:0] $end
$var wire 32 7 PCE [31:0] $end
$var wire 32 8 PCD [31:0] $end
$var wire 1 9 PCBranchE $end
$var wire 1 : MemtoRegW $end
$var wire 1 ; MemtoRegM $end
$var wire 1 < MemtoRegE $end
$var wire 1 = MemWriteM $end
$var wire 1 > MemWriteE $end
$var wire 1 ? JALRctrlE $end
$var wire 32 @ ALUoutW [31:0] $end
$var wire 32 A ALUoutM [31:0] $end
$var wire 4 B ALUopE [3:0] $end
$scope module decode_unit $end
$var wire 1 > MemWriteE $end
$var wire 1 < MemtoRegE $end
$var wire 1 3 RegWriteE $end
$var wire 1 ! clk $end
$var wire 5 C rdE [4:0] $end
$var wire 1 # rst $end
$var wire 3 D strCtrlE [2:0] $end
$var wire 3 E strCtrlD [2:0] $end
$var wire 32 F resultW [31:0] $end
$var wire 5 G rdW [4:0] $end
$var wire 32 H r2E [31:0] $end
$var wire 32 I r2D [31:0] $end
$var wire 32 J r1E [31:0] $end
$var wire 32 K r1D [31:0] $end
$var wire 32 L instrD [31:0] $end
$var wire 3 M immSelD [2:0] $end
$var wire 32 N immE [31:0] $end
$var wire 32 O immD [31:0] $end
$var wire 2 P SrcBSelE [1:0] $end
$var wire 2 Q SrcBSelD [1:0] $end
$var wire 2 R SrcASelE [1:0] $end
$var wire 2 S SrcASelD [1:0] $end
$var wire 1 1 RegWriteW $end
$var wire 1 T RegWriteD $end
$var wire 32 U PCE [31:0] $end
$var wire 32 V PCD [31:0] $end
$var wire 1 9 PCBranchE $end
$var wire 1 W PCBranchD $end
$var wire 1 X MemtoRegD $end
$var wire 1 Y MemWriteD $end
$var wire 1 ? JALRctrlE $end
$var wire 1 Z JALRctrlD $end
$var wire 4 [ ALUopE [3:0] $end
$var wire 4 \ ALUopD [3:0] $end
$var reg 4 ] reg_ALUopD [3:0] $end
$var reg 1 ? reg_JALRctrlD $end
$var reg 1 ^ reg_MemWriteD $end
$var reg 1 _ reg_MemtoRegD $end
$var reg 1 9 reg_PCBranchD $end
$var reg 32 ` reg_PCD [31:0] $end
$var reg 1 a reg_RegWriteD $end
$var reg 2 b reg_SrcASelD [1:0] $end
$var reg 2 c reg_SrcBSelD [1:0] $end
$var reg 32 d reg_immD [31:0] $end
$var reg 32 e reg_r1D [31:0] $end
$var reg 32 f reg_r2D [31:0] $end
$var reg 5 g reg_rdD [4:0] $end
$var reg 3 h reg_strCtrlD [2:0] $end
$scope module control $end
$var wire 3 i funct3 [2:0] $end
$var wire 1 j funct7 $end
$var wire 3 k immSelD [2:0] $end
$var wire 7 l opcode [6:0] $end
$var wire 3 m strCtrlD [2:0] $end
$var wire 2 n SrcBSelD [1:0] $end
$var wire 2 o SrcASelD [1:0] $end
$var wire 1 T RegWriteD $end
$var wire 1 W PCBranchD $end
$var wire 1 X MemtoRegD $end
$var wire 1 Y MemWriteD $end
$var wire 1 Z JALRctrlD $end
$var wire 4 p ALUopD [3:0] $end
$var reg 3 q immSel [2:0] $end
$upscope $end
$scope module immG $end
$var wire 32 r immD [31:0] $end
$var wire 3 s immSelD [2:0] $end
$var wire 25 t instrD [31:7] $end
$var wire 32 u Uimm [31:0] $end
$var wire 32 v Simm [31:0] $end
$var wire 32 w Limm [31:0] $end
$var wire 32 x Jimm [31:0] $end
$var wire 32 y Iimm [31:0] $end
$var wire 32 z Bimm [31:0] $end
$var reg 32 { imm [31:0] $end
$upscope $end
$scope module regs $end
$var wire 1 ! clk $end
$var wire 5 | rs1 [4:0] $end
$var wire 5 } rs2 [4:0] $end
$var wire 1 # rst $end
$var wire 1 1 we $end
$var wire 32 ~ wd [31:0] $end
$var wire 5 !" rd [4:0] $end
$var wire 32 "" r2 [31:0] $end
$var wire 32 #" r1 [31:0] $end
$upscope $end
$upscope $end
$scope module execute_unit $end
$var wire 4 $" ALUopE [3:0] $end
$var wire 1 ? JALRctrlE $end
$var wire 1 > MemWriteE $end
$var wire 1 = MemWriteM $end
$var wire 1 < MemtoRegE $end
$var wire 1 ; MemtoRegM $end
$var wire 1 9 PCBranchE $end
$var wire 32 %" PCE [31:0] $end
$var wire 1 5 PCsrcE $end
$var wire 1 3 RegWriteE $end
$var wire 1 2 RegWriteM $end
$var wire 2 &" SrcASelE [1:0] $end
$var wire 2 '" SrcBSelE [1:0] $end
$var wire 1 ! clk $end
$var wire 32 (" immE [31:0] $end
$var wire 32 )" r1E [31:0] $end
$var wire 32 *" r2E [31:0] $end
$var wire 5 +" rdE [4:0] $end
$var wire 5 ," rdM [4:0] $end
$var wire 1 # rst $end
$var wire 3 -" strCtrlE [2:0] $end
$var wire 3 ." strCtrlM [2:0] $end
$var wire 32 /" srcB [31:0] $end
$var wire 32 0" srcA [31:0] $end
$var wire 32 1" r2M [31:0] $end
$var wire 32 2" pc [31:0] $end
$var wire 1 3" branchE $end
$var wire 32 4" PCplusImmE [31:0] $end
$var wire 32 5" ALUoutM [31:0] $end
$var wire 32 6" ALUoutE [31:0] $end
$var reg 32 7" reg_ALUoutE [31:0] $end
$var reg 1 8" reg_MemWriteE $end
$var reg 1 9" reg_MemtoRegE $end
$var reg 1 :" reg_RegWriteE $end
$var reg 32 ;" reg_r2E [31:0] $end
$var reg 5 <" reg_rdE [4:0] $end
$var reg 3 =" reg_strCtrlE [2:0] $end
$scope module core $end
$var wire 32 >" aluIn1 [31:0] $end
$var wire 32 ?" aluIn2 [31:0] $end
$var wire 4 @" aluOP [3:0] $end
$var wire 32 A" shifter_in [31:0] $end
$var wire 32 B" shifter [31:0] $end
$var wire 32 C" leftshift [31:0] $end
$var wire 32 D" aluPlus [31:0] $end
$var wire 33 E" aluMinus [32:0] $end
$var wire 1 F" LTU $end
$var wire 1 G" LT $end
$var wire 1 H" EQ $end
$var reg 32 I" aluOut [31:0] $end
$var reg 1 3" branch $end
$scope function flip32 $end
$var reg 32 J" x [31:0] $end
$upscope $end
$upscope $end
$upscope $end
$scope module fetch_unit $end
$var wire 32 K" PCplusImmE [31:0] $end
$var wire 1 5 PCsrcE $end
$var wire 1 ! clk $end
$var wire 32 L" four [31:0] $end
$var wire 1 # rst $end
$var wire 32 M" nextPCF [31:0] $end
$var wire 32 N" instrF [31:0] $end
$var wire 32 O" instrD [31:0] $end
$var wire 32 P" PCplus4F [31:0] $end
$var wire 32 Q" PCF [31:0] $end
$var wire 32 R" PCD [31:0] $end
$var reg 32 S" reg_PCF [31:0] $end
$var reg 32 T" reg_instrF [31:0] $end
$scope module imem $end
$var wire 1 # rst $end
$var wire 32 U" readData [31:0] $end
$var wire 32 V" addr [31:0] $end
$upscope $end
$scope module pc $end
$var wire 1 ! clk $end
$var wire 32 W" nextPC [31:0] $end
$var wire 1 # rst $end
$var reg 32 X" PC [31:0] $end
$upscope $end
$upscope $end
$scope module memory_unit $end
$var wire 32 Y" ALUoutM [31:0] $end
$var wire 1 Z" LOAD_sign $end
$var wire 1 = MemWriteM $end
$var wire 1 ; MemtoRegM $end
$var wire 32 [" ReadDataM [31:0] $end
$var wire 1 2 RegWriteM $end
$var wire 1 1 RegWriteW $end
$var wire 1 ! clk $end
$var wire 1 " dump $end
$var wire 32 \" r2M [31:0] $end
$var wire 5 ]" rdM [4:0] $end
$var wire 5 ^" rdW [4:0] $end
$var wire 1 # rst $end
$var wire 3 _" strCtrlM [2:0] $end
$var wire 32 `" wdata [31:0] $end
$var wire 4 a" mem_wmask [3:0] $end
$var wire 32 b" mem_wdata [31:0] $end
$var wire 32 c" mem_rdata [31:0] $end
$var wire 1 d" mem_halfwordAccess $end
$var wire 1 e" mem_byteAccess $end
$var wire 32 f" ReadDataW [31:0] $end
$var wire 1 : MemtoRegW $end
$var wire 16 g" LOAD_halfword [15:0] $end
$var wire 32 h" LOAD_data [31:0] $end
$var wire 8 i" LOAD_byte [7:0] $end
$var wire 32 j" ALUoutW [31:0] $end
$var reg 32 k" reg_ALUoutM [31:0] $end
$var reg 1 : reg_MemtoRegM $end
$var reg 32 l" reg_ReadDataM [31:0] $end
$var reg 1 m" reg_RegWriteM $end
$var reg 5 n" reg_rdM [4:0] $end
$scope module dmem $end
$var wire 30 o" A [31:2] $end
$var wire 1 ! clk $end
$var wire 1 " dump $end
$var wire 4 p" mem_wmask [3:0] $end
$var wire 1 # rst $end
$var wire 32 q" wd [31:0] $end
$var wire 1 = we $end
$var wire 32 r" rd [31:0] $end
$var integer 32 s" dump_file [31:0] $end
$var integer 32 t" i [31:0] $end
$upscope $end
$upscope $end
$scope module writeback_unit $end
$var wire 32 u" ALUoutW [31:0] $end
$var wire 1 : MemtoRegW $end
$var wire 32 v" ReadDataW [31:0] $end
$var wire 32 w" resultW [31:0] $end
$upscope $end
$upscope $end
$upscope $end
$enddefinitions $end
$comment Show the parameter values. $end
$dumpall
$end
#0
$dumpvars
b0 w"
b0 v"
b0 u"
bx t"
b10000000000000000000000000000011 s"
b0 r"
b0 q"
b1 p"
b0 o"
b0 n"
0m"
b0 l"
b0 k"
b0 j"
b0 i"
b0 h"
b0 g"
b0 f"
1e"
0d"
b0 c"
b0 b"
b1 a"
b0 `"
b0 _"
b0 ^"
b0 ]"
b0 \"
b0 ["
0Z"
b0 Y"
bx X"
bx W"
bx V"
b0 U"
b0 T"
b0 S"
b0 R"
bx Q"
bx P"
b0 O"
b0 N"
bx M"
b100 L"
b0 K"
b0 J"
b0 I"
1H"
0G"
0F"
b0 E"
b0 D"
b0 C"
b0 B"
b0 A"
b0 @"
b0 ?"
b0 >"
b0 ="
b0 <"
b0 ;"
0:"
09"
08"
b0 7"
b0 6"
b0 5"
b0 4"
13"
b0 2"
b0 1"
b0 0"
b0 /"
b0 ."
b0 -"
b0 ,"
b0 +"
b0 *"
b0 )"
b0 ("
b11 '"
b1 &"
b0 %"
b0 $"
b0 #"
b0 ""
b0 !"
b0 ~
b0 }
b0 |
b0 {
b0 z
b0 y
b0 x
b0 w
b0 v
b0 u
b0 t
b110 s
b0 r
b110 q
b0 p
b11 o
b0 n
b0 m
b0 l
b110 k
0j
b0 i
b0 h
b0 g
b0 f
b0 e
b0 d
b11 c
b1 b
0a
b0 `
0_
0^
b0 ]
b0 \
b0 [
1Z
0Y
0X
0W
b0 V
b0 U
0T
b11 S
b1 R
b0 Q
b11 P
b0 O
b0 N
b110 M
b0 L
b0 K
b0 J
b0 I
b0 H
b0 G
b0 F
b0 E
b0 D
b0 C
b0 B
b0 A
b0 @
1?
0>
0=
0<
0;
0:
09
b0 8
b0 7
b0 6
05
b0 4
03
02
01
b1 0
b11 /
b0 .
b0 -
b0 ,
b0 +
b0 *
b0 )
b0 (
b0 '
b0 &
b0 %
b0 $
1#
0"
0!
$end
#5000
b100 M"
b100 W"
b100 P"
b0 Q"
b0 V"
b0 X"
1!
#10000
0!
#11000
b11100000000001110000011 N"
b11100000000001110000011 U"
0#
#15000
b111 O
b111 r
b111 {
b101 M
b101 k
b101 s
b101 q
b1 Q
b1 n
1T
1X
b11100000000000000000000 u
b111 y
b111 v
b100000000110 z
b100000000110 x
b111 w
bx I
bx ""
b110010000000010101000000011 N"
b110010000000010101000000011 U"
b11 l
b1110000000000111 t
b111 }
b1000 M"
b1000 W"
b11100000000001110000011 -
b11100000000001110000011 L
b11100000000001110000011 O"
b1000 P"
b100 Q"
b100 V"
b100 X"
b11100000000001110000011 T"
b0 /
b0 P
b0 c
b0 '"
b11 0
b11 R
b11 b
b11 &"
1!
#20000
0!
#25000
03"
b1100100 O
b1100100 r
b1100100 {
b111 6"
b111 I"
1G"
1F"
0H"
b111111111111111111111111111111001 E"
b110010000000010000000000000 u
b1100100 y
b1110100 v
b1110100 z
b10000001100100 x
b1100100 w
b0 N"
b0 U"
b111 D"
b111 /"
b111 ?"
b10 E
b10 m
b10 i
b11001000000001010100 t
b100 }
b1100 M"
b1100 W"
b100 8
b100 V
b100 R"
b110010000000010101000000011 -
b110010000000010101000000011 L
b110010000000010101000000011 O"
b1100 P"
b1000 Q"
b1000 V"
b1000 X"
b111 )
b111 C
b111 +"
b111 g
b111 6
b111 4"
b111 K"
b111 .
b111 N
b111 d
b111 ("
bx +
bx H
bx f
bx *"
1<
1_
b1 /
b1 P
b1 c
b1 '"
13
1a
b100 S"
b110010000000010101000000011 T"
1!
#30000
0!
#35000
b0 O
b0 r
b0 {
b110 M
b110 k
b110 s
b110 q
b1100100 6"
b1100100 I"
b0 Q
b0 n
b1000 ["
b1000 h"
b1000 i"
0T
b100000000000 g"
0X
b0 u
b0 y
b0 v
b0 z
b0 x
b0 w
b0 I
b0 ""
b111111111111111111111111110011100 E"
b1000 a"
b1000 p"
b0 E
b0 m
b0 i
b0 l
b0 t
b0 }
b1100100 D"
b1100100 /"
b1100100 ?"
b1000000000000000000000000000 c"
b1000000000000000000000000000 r"
bx b"
bx q"
b10000 M"
b10000 W"
b1000 8
b1000 V
b1000 R"
b0 -
b0 L
b0 O"
b100 2"
b1 o"
bx `"
b10000 P"
b1100 Q"
b1100 V"
b1100 X"
b1000 S"
b0 T"
b100 7
b100 U
b100 `
b100 %"
b10100 )
b10100 C
b10100 +"
b10100 g
b1101000 6
b1101000 4"
b1101000 K"
b1100100 .
b1100100 N
b1100100 d
b1100100 ("
b10 %
b10 D
b10 -"
b10 h
b111 A
b111 5"
b111 7"
b111 Y"
bx *
bx 1"
bx ;"
bx \"
b111 (
b111 ,"
b111 ]"
b111 <"
1;
19"
12
1:"
1!
#40000
0!
#45000
13"
b0 6"
b0 I"
0G"
0F"
1H"
b0 E"
b100000111001001110010011 N"
b100000111001001110010011 U"
b10000100011101010101011101111001 c"
b10000100011101010101011101111001 r"
b101011101111001 g"
b1111001 i"
b1111 a"
b1111 p"
b10000100011101010101011101111001 ["
b10000100011101010101011101111001 h"
b0 D"
b0 /"
b0 ?"
b10100 M"
b10100 W"
b1000 &
b1000 F
b1000 ~
b1000 w"
b11001 o"
0e"
b1000 2"
b1100 8
b1100 V
b1100 R"
b10100 P"
b10000 Q"
b10000 V"
b10000 X"
b111 @
b111 j"
b111 k"
b111 u"
b1000 4
b1000 f"
b1000 l"
b1000 v"
b111 '
b111 G
b111 !"
b111 ^"
b111 n"
1:
11
1m"
b1100100 A
b1100100 5"
b1100100 7"
b1100100 Y"
b10100 (
b10100 ,"
b10100 ]"
b10100 <"
b10 $
b10 ."
b10 ="
b10 _"
b1000 7
b1000 U
b1000 `
b1000 %"
b0 )
b0 C
b0 +"
b0 g
b1000 6
b1000 4"
b1000 K"
b0 .
b0 N
b0 d
b0 ("
b0 +
b0 H
b0 f
b0 *"
b0 %
b0 D
b0 -"
b0 h
0<
0_
b0 /
b0 P
b0 c
b0 '"
03
0a
b1100 S"
1!
#50000
0!
#55000
b1000 O
b1000 r
b1000 {
b0 M
b0 k
b0 s
b0 q
b1 Q
b1 n
b0 i"
b1 \
b1 p
1T
b0 g"
b100000111001000000000000 u
b1000 y
b111 v
b100000000110 z
b111001000000001000 x
b1000 w
bx I
bx ""
b1000 K
b1000 #"
b10010100101011010010011 N"
b10010100101011010010011 U"
b1 E
b1 m
b1 i
b10011 l
b10000011100100111 t
b1000 }
b111 |
b0 c"
b0 r"
b0 b"
b0 q"
b1 a"
b1 p"
b0 ["
b0 h"
b11000 M"
b11000 W"
b10000 8
b10000 V
b10000 R"
b100000111001001110010011 -
b100000111001001110010011 L
b100000111001001110010011 O"
b1100 6
b1100 4"
b1100 K"
b1100 2"
b0 o"
b0 `"
1e"
b10000100011101010101011101111001 &
b10000100011101010101011101111001 F
b10000100011101010101011101111001 ~
b10000100011101010101011101111001 w"
b11000 P"
b10100 Q"
b10100 V"
b10100 X"
b10000 S"
b100000111001001110010011 T"
b1100 7
b1100 U
b1100 `
b1100 %"
b0 A
b0 5"
b0 7"
b0 Y"
b0 *
b0 1"
b0 ;"
b0 \"
b0 (
b0 ,"
b0 ]"
b0 <"
b0 $
b0 ."
b0 ="
b0 _"
0;
09"
02
0:"
b1100100 @
b1100100 j"
b1100100 k"
b1100100 u"
b10000100011101010101011101111001 4
b10000100011101010101011101111001 f"
b10000100011101010101011101111001 l"
b10000100011101010101011101111001 v"
b10100 '
b10100 G
b10100 !"
b10100 ^"
b10100 n"
1!
#60000
0!
#65000
b100000000000 6"
b100000000000 I"
b100 O
b100 r
b100 {
03"
b100000000000 C"
b100000000000000000000 B"
b10000000000000000000000000000 A"
1H"
b100000000000000000000 J"
b101 \
b101 p
b10010100101000000000000 u
b100 y
b1101 v
b100000001100 z
b10100101000000000100 x
b100 w
b10000100011101010101011101111001 K
b10000100011101010101011101111001 #"
b1000000010010100101011100010011 N"
b1000000010010100101011100010011 U"
b1000 /"
b1000 ?"
b10000 D"
b0 E"
b1000 0"
b1000 >"
b101 E
b101 m
b101 i
b1001010010101101 t
b100 }
b10100 |
b11100 M"
b11100 W"
b0 &
b0 F
b0 ~
b0 w"
b10000 2"
b10100 8
b10100 V
b10100 R"
b10010100101011010010011 -
b10010100101011010010011 L
b10010100101011010010011 O"
b11100 P"
b11000 Q"
b11000 V"
b11000 X"
b0 @
b0 j"
b0 k"
b0 u"
b0 4
b0 f"
b0 l"
b0 v"
b0 '
b0 G
b0 !"
b0 ^"
b0 n"
0:
01
0m"
b10000 7
b10000 U
b10000 `
b10000 %"
b111 )
b111 C
b111 +"
b111 g
b11000 6
b11000 4"
b11000 K"
b1000 .
b1000 N
b1000 d
b1000 ("
bx +
bx H
bx f
bx *"
b1000 ,
b1000 J
b1000 e
b1000 )"
b1 %
b1 D
b1 -"
b1 h
b1 B
b1 [
b1 ]
b1 $"
b1 @"
b1 /
b1 P
b1 c
b1 '"
13
1a
b10100 S"
b10010100101011010010011 T"
1!
#70000
0!
#75000
b10000000100 O
b10000000100 r
b10000000100 {
03"
b1000010001110101010101110111 6"
b1000010001110101010101110111 I"
xZ"
bx i"
bx ["
bx h"
1G"
b1101 \
b1101 p
bx g"
b1000000010010100101000000000000 u
b10000000100 y
b10000001110 v
b10000001110 z
b10100101010000000100 x
b10000000100 w
0H"
b11101110101010101110001000010000 C"
b1000010001110101010101110111 J"
b0 N"
b0 U"
1j
b100000001001010010101110 t
b100 /"
b100 ?"
b10000100011101010101011101111101 D"
b10000100011101010101011101110101 E"
b10000100011101010101011101111001 0"
b10000100011101010101011101111001 >"
b1000010001110101010101110111 B"
bx c"
bx r"
bx b"
bx q"
b11 a"
b11 p"
b100000 M"
b100000 W"
b11000 8
b11000 V
b11000 R"
b1000000010010100101011100010011 -
b1000000010010100101011100010011 L
b1000000010010100101011100010011 O"
b10100 2"
b10000100011101010101011101111001 A"
b1000000000 o"
bx `"
0e"
1d"
b100000 P"
b11100 Q"
b11100 V"
b11100 X"
b11000 S"
b1000000010010100101011100010011 T"
b10100 7
b10100 U
b10100 `
b10100 %"
b1101 )
b1101 C
b1101 +"
b1101 g
b11000 6
b11000 4"
b11000 K"
b100 .
b100 N
b100 d
b100 ("
b10000100011101010101011101111001 ,
b10000100011101010101011101111001 J
b10000100011101010101011101111001 e
b10000100011101010101011101111001 )"
b101 %
b101 D
b101 -"
b101 h
b101 B
b101 [
b101 ]
b101 $"
b101 @"
b100000000000 A
b100000000000 5"
b100000000000 7"
b100000000000 Y"
bx *
bx 1"
bx ;"
bx \"
b111 (
b111 ,"
b111 ]"
b111 <"
b1 $
b1 ."
b1 ="
b1 _"
12
1:"
1!
#80000
0!
#85000
b0 O
b0 r
b0 {
b11111000010001110101010101110111 6"
b11111000010001110101010101110111 I"
b110 M
b110 k
b110 s
b110 q
b0 Q
b0 n
b1100 a"
b1100 p"
b0xxxxxxxxxxxxxxxx ["
b0xxxxxxxxxxxxxxxx h"
b11101110101010101110001000011111 C"
b11111000010001110101010101110111 J"
b0 \
b0 p
0T
b10000100011101010101001101110101 E"
b11111000010001110101010101110111 B"
b0 u
b0 y
b0 v
b0 z
b0 x
b0 w
b0 I
b0 ""
b0 K
b0 #"
b11100000000110001100011 N"
b11100000000110001100011 U"
0Z"
b10000100011101010101101101111101 D"
b10000000100 /"
b10000000100 ?"
0j
b0 E
b0 m
b0 i
b0 l
b0 t
b0 }
b0 |
b100100 M"
b100100 W"
b100000000000 &
b100000000000 F
b100000000000 ~
b100000000000 w"
b10000100011101010101011101 o"
b11000 2"
b11100 8
b11100 V
b11100 R"
b0 -
b0 L
b0 O"
b100100 P"
b100000 Q"
b100000 V"
b100000 X"
b100000000000 @
b100000000000 j"
b100000000000 k"
b100000000000 u"
bx 4
bx f"
bx l"
bx v"
b111 '
b111 G
b111 !"
b111 ^"
b111 n"
11
1m"
b1000010001110101010101110111 A
b1000010001110101010101110111 5"
b1000010001110101010101110111 7"
b1000010001110101010101110111 Y"
b1101 (
b1101 ,"
b1101 ]"
b1101 <"
b101 $
b101 ."
b101 ="
b101 _"
b11000 7
b11000 U
b11000 `
b11000 %"
b1110 )
b1110 C
b1110 +"
b1110 g
b10000011100 6
b10000011100 4"
b10000011100 K"
b10000000100 .
b10000000100 N
b10000000100 d
b10000000100 ("
b1101 B
b1101 [
b1101 ]
b1101 $"
b1101 @"
b11100 S"
b0 T"
1!
#90000
0!
#95000
b11000 O
b11000 r
b11000 {
13"
b11 M
b11 k
b11 s
b11 q
b0 6"
b0 I"
1W
1H"
0G"
b0 C"
b11100000000000000000000 u
b111 y
b11000 v
b11000 z
b100000000110 x
b111 w
b100000000000 I
b100000000000 ""
0F"
b0 J"
b0 A"
b0 B"
b10100111100010010010011 N"
b10100111100010010010011 U"
b1100011 l
b1110000000011000 t
b111 }
b0 /"
b0 ?"
b0 D"
b0 E"
b0 0"
b0 >"
b101000 M"
b101000 W"
b100000 8
b100000 V
b100000 R"
b11100000000110001100011 -
b11100000000110001100011 L
b11100000000110001100011 O"
b11100 2"
b111110000100011101010101011101 o"
b1000010001110101010101110111 &
b1000010001110101010101110111 F
b1000010001110101010101110111 ~
b1000010001110101010101110111 w"
b101000 P"
b100100 Q"
b100100 V"
b100100 X"
b100000 S"
b11100000000110001100011 T"
b11100 7
b11100 U
b11100 `
b11100 %"
b0 )
b0 C
b0 +"
b0 g
b11100 6
b11100 4"
b11100 K"
b0 .
b0 N
b0 d
b0 ("
b0 +
b0 H
b0 f
b0 *"
b0 ,
b0 J
b0 e
b0 )"
b0 %
b0 D
b0 -"
b0 h
b0 B
b0 [
b0 ]
b0 $"
b0 @"
b0 /
b0 P
b0 c
b0 '"
03
0a
b11111000010001110101010101110111 A
b11111000010001110101010101110111 5"
b11111000010001110101010101110111 7"
b11111000010001110101010101110111 Y"
b1110 (
b1110 ,"
b1110 ]"
b1110 <"
b1000010001110101010101110111 @
b1000010001110101010101110111 j"
b1000010001110101010101110111 k"
b1000010001110101010101110111 u"
b0xxxxxxxxxxxxxxxx 4
b0xxxxxxxxxxxxxxxx f"
b0xxxxxxxxxxxxxxxx l"
b0xxxxxxxxxxxxxxxx v"
b1101 '
b1101 G
b1101 !"
b1101 ^"
b1101 n"
1!
#100000
0!
#105000
03"
b101 O
b101 r
b101 {
b100000000000 6"
b100000000000 I"
b0 M
b0 k
b0 s
b0 q
b0 i"
b1 Q
b1 n
1G"
0W
b100 \
b100 p
b0 g"
1F"
0H"
1T
b111111111111111111111100000000000 E"
b10100111100000000000000 u
b101 y
b1001 v
b100000001000 z
b111100100000000100 x
b101 w
bx I
bx ""
b100000000000 K
b100000000000 #"
b0 N"
b0 U"
b0 c"
b0 r"
b0 b"
b0 q"
b1 a"
b1 p"
b0 ["
b0 h"
0Z"
b100000000000 D"
b100000000000 /"
b100000000000 ?"
b100 E
b100 m
b100 i
b10011 l
b1010011110001001 t
b101 }
b111 |
b101100 M"
b101100 W"
b11111000010001110101010101110111 &
b11111000010001110101010101110111 F
b11111000010001110101010101110111 ~
b11111000010001110101010101110111 w"
b0 o"
b0 `"
1e"
0d"
b100000 2"
05
b100100 8
b100100 V
b100100 R"
b10100111100010010010011 -
b10100111100010010010011 L
b10100111100010010010011 O"
b101100 P"
b101000 Q"
b101000 V"
b101000 X"
b11111000010001110101010101110111 @
b11111000010001110101010101110111 j"
b11111000010001110101010101110111 k"
b11111000010001110101010101110111 u"
b1110 '
b1110 G
b1110 !"
b1110 ^"
b1110 n"
b0 A
b0 5"
b0 7"
b0 Y"
b0 *
b0 1"
b0 ;"
b0 \"
b0 (
b0 ,"
b0 ]"
b0 <"
b0 $
b0 ."
b0 ="
b0 _"
02
0:"
b100000 7
b100000 U
b100000 `
b100000 %"
b11000 )
b11000 C
b11000 +"
b11000 g
b111000 6
b111000 4"
b111000 K"
b11000 .
b11000 N
b11000 d
b11000 ("
b100000000000 +
b100000000000 H
b100000000000 f
b100000000000 *"
19
b100100 S"
b10100111100010010010011 T"
1!
#110000
0!
#115000
b0 O
b0 r
b0 {
b110 M
b110 k
b110 s
b110 q
b100000000101 6"
b100000000101 I"
03"
xZ"
bx ["
bx h"
b0 Q
b0 n
bx i"
b10000000000000000000000000 C"
0T
0G"
b1000000 B"
bx g"
b0 \
b0 p
b0 u
b0 y
b0 v
b0 z
b0 x
b0 w
b0 I
b0 ""
b0 K
b0 #"
0F"
0H"
b1000000 J"
b100000000000 A"
b100000000000 b"
b100000000000 q"
b0 E
b0 m
b0 i
b0 l
b0 t
b0 }
b0 |
b101 /"
b101 ?"
b100000000101 D"
b11111111011 E"
b100000000000 0"
b100000000000 >"
bx c"
bx r"
b100000000000 `"
b110000 M"
b110000 W"
b101000 8
b101000 V
b101000 R"
b0 -
b0 L
b0 O"
b100100 2"
b1000000000 o"
b0 &
b0 F
b0 ~
b0 w"
b110000 P"
b101100 Q"
b101100 V"
b101100 X"
b101000 S"
b0 T"
b100100 7
b100100 U
b100100 `
b100100 %"
b1001 )
b1001 C
b1001 +"
b1001 g
b101001 6
b101001 4"
b101001 K"
b101 .
b101 N
b101 d
b101 ("
bx +
bx H
bx f
bx *"
b100000000000 ,
b100000000000 J
b100000000000 e
b100000000000 )"
b100 %
b100 D
b100 -"
b100 h
b100 B
b100 [
b100 ]
b100 $"
b100 @"
09
b1 /
b1 P
b1 c
b1 '"
13
1a
b100000000000 A
b100000000000 5"
b100000000000 7"
b100000000000 Y"
b100000000000 *
b100000000000 1"
b100000000000 ;"
b100000000000 \"
b11000 (
b11000 ,"
b11000 ]"
b11000 <"
b0 @
b0 j"
b0 k"
b0 u"
b0 4
b0 f"
b0 l"
b0 v"
b0 '
b0 G
b0 !"
b0 ^"
b0 n"
01
0m"
1!
#120000
0!
#125000
13"
b0 6"
b0 I"
b0 C"
b10 a"
b10 p"
1H"
0G"
b0 B"
b0xxxxxxxx ["
b0xxxxxxxx h"
0F"
b0 J"
b0 A"
b110000000000000011100111 N"
b110000000000000011100111 U"
bx b"
bx q"
0Z"
b0 /"
b0 ?"
b0 D"
b0 E"
b0 0"
b0 >"
b110100 M"
b110100 W"
b100000000000 &
b100000000000 F
b100000000000 ~
b100000000000 w"
b1000000001 o"
bx `"
b101000 2"
b101100 8
b101100 V
b101100 R"
b110100 P"
b110000 Q"
b110000 V"
b110000 X"
b100000000000 @
b100000000000 j"
b100000000000 k"
b100000000000 u"
bx 4
bx f"
bx l"
bx v"
b11000 '
b11000 G
b11000 !"
b11000 ^"
b11000 n"
b100000000101 A
b100000000101 5"
b100000000101 7"
b100000000101 Y"
bx *
bx 1"
bx ;"
bx \"
b1001 (
b1001 ,"
b1001 ]"
b1001 <"
b100 $
b100 ."
b100 ="
b100 _"
12
1:"
b101000 7
b101000 U
b101000 `
b101000 %"
b0 )
b0 C
b0 +"
b0 g
b101000 6
b101000 4"
b101000 K"
b0 .
b0 N
b0 d
b0 ("
b0 +
b0 H
b0 f
b0 *"
b0 ,
b0 J
b0 e
b0 )"
b0 %
b0 D
b0 -"
b0 h
b0 B
b0 [
b0 ]
b0 $"
b0 @"
b0 /
b0 P
b0 c
b0 '"
03
0a
b101100 S"
1!
#130000
0!
